{
	"info": {
		"_postman_id": "dfde5c01-18a9-45f5-b7b5-83700239ccc0",
		"name": "uxs-orange-restaurant",
		"schema": "https://schema.getpostman.com/json/collection/v2.1.0/collection.json"
	},
	"item": [
		{
			"name": "Create drink",
			"request": {
				"method": "POST",
				"header": [
					{
						"key": "Content-Type",
						"value": "application/json",
						"type": "text"
					}
				],
				"body": {
					"mode": "raw",
					"raw": "{\n\t\"name\": \"Coke\",\n\t\"category\": \"DRINK\",\n\t\"price\": 1.00,\n\t\"taxes\": 0.10,\n\t\"quantity\": 1000\n}"
				},
				"url": {
					"raw": "localhost:8081/meals",
					"host": [
						"localhost"
					],
					"port": "8081",
					"path": [
						"meals"
					],
					"query": [
						{
							"key": "",
							"value": ""
						}
					]
				},
				"description": "Create coke"
			},
			"response": []
		},
		{
			"name": "Create second course",
			"request": {
				"method": "POST",
				"header": [
					{
						"key": "Content-Type",
						"name": "Content-Type",
						"value": "application/json",
						"type": "text"
					}
				],
				"body": {
					"mode": "raw",
					"raw": "{\n\t\"name\": \"Cheeseburger\",\n\t\"category\": \"SECOND_COURSE\",\n\t\"price\": \"8.50\",\n\t\"taxes\": 0.10,\n\t\"quantity\": 10\n}"
				},
				"url": {
					"raw": "localhost:8081/meals",
					"host": [
						"localhost"
					],
					"port": "8081",
					"path": [
						"meals"
					]
				},
				"description": "Create a cheeseburguer meal"
			},
			"response": []
		},
		{
			"name": "Create main course",
			"request": {
				"method": "POST",
				"header": [
					{
						"key": "Content-Type",
						"value": "application/json",
						"type": "text"
					}
				],
				"body": {
					"mode": "raw",
					"raw": "{\n\t\"name\": \"Chicken soup\",\n\t\"category\": \"MAIN_COURSE\",\n\t\"price\": 4.00,\n\t\"taxes\": 0.10,\n\t\"quantity\": 100\n}"
				},
				"url": {
					"raw": "localhost:8081/meals",
					"host": [
						"localhost"
					],
					"port": "8081",
					"path": [
						"meals"
					]
				},
				"description": "First dish of a menu"
			},
			"response": []
		},
		{
			"name": "Get all meals",
			"request": {
				"method": "GET",
				"header": [],
				"body": {
					"mode": "raw",
					"raw": ""
				},
				"url": {
					"raw": "http://localhost:8081/meals",
					"protocol": "http",
					"host": [
						"localhost"
					],
					"port": "8081",
					"path": [
						"meals"
					]
				},
				"description": "Get all meals"
			},
			"response": []
		},
		{
			"name": "Create order",
			"request": {
				"method": "POST",
				"header": [
					{
						"key": "Content-Type",
						"value": "application/json",
						"type": "text"
					}
				],
				"body": {
					"mode": "raw",
					"raw": "[\r\n\t{\r\n\t\t\"mealId\": 1,\r\n\t\t\"quantity\": 2\r\n\t},\r\n\t{\r\n\t\t\"mealId\": 2,\r\n\t\t\"quantity\": 10\r\n\t},\r\n\t{\r\n\t\t\"mealId\": 3,\r\n\t\t\"quantity\": 4\r\n\t}\r\n]"
				},
				"url": {
					"raw": "http://localhost:8081/orders",
					"protocol": "http",
					"host": [
						"localhost"
					],
					"port": "8081",
					"path": [
						"orders"
					]
				}
			},
			"response": []
		},
		{
			"name": "Get all orders",
			"request": {
				"method": "GET",
				"header": [],
				"body": {
					"mode": "raw",
					"raw": ""
				},
				"url": {
					"raw": "localhost:8081/orders",
					"host": [
						"localhost"
					],
					"port": "8081",
					"path": [
						"orders"
					]
				}
			},
			"response": []
		},
		{
			"name": "Pay order",
			"request": {
				"method": "PUT",
				"header": [
					{
						"key": "Content-Type",
						"value": "application/json",
						"type": "text"
					}
				],
				"body": {
					"mode": "raw",
					"raw": ""
				},
				"url": {
					"raw": "localhost:8081/orders/1",
					"host": [
						"localhost"
					],
					"port": "8081",
					"path": [
						"orders",
						"1"
					]
				},
				"description": "Pay order with id requested"
			},
			"response": []
		},
		{
			"name": "Get by category",
			"request": {
				"method": "GET",
				"header": [],
				"body": {
					"mode": "raw",
					"raw": ""
				},
				"url": {
					"raw": "localhost:8081/meals?category=SECOND_COURSE",
					"host": [
						"localhost"
					],
					"port": "8081",
					"path": [
						"meals"
					],
					"query": [
						{
							"key": "category",
							"value": "SECOND_COURSE"
						}
					]
				},
				"description": "Possible values: APPETIZER, MAIN_COURSE, SECOND_COURSE, DRINK, DESSERT;"
			},
			"response": []
		},
		{
			"name": "Get all available meals",
			"request": {
				"method": "GET",
				"header": [],
				"body": {
					"mode": "raw",
					"raw": ""
				},
				"url": {
					"raw": "localhost:8081/meals/availables",
					"host": [
						"localhost"
					],
					"port": "8081",
					"path": [
						"meals",
						"availables"
					]
				}
			},
			"response": []
		}
	]
}